<?xml version="1.0" encoding="iso-8859-1"?>
<!-- Generator: Adobe Illustrator 24.1.2, SVG Export Plug-In . SVG Version: 6.00 Build 0)  -->
<svg version="1.1" id="Layer_1" xmlns="http://www.w3.org/2000/svg" xmlns:xlink="http://www.w3.org/1999/xlink"
	 viewBox="0 0 528 390" xml:space="preserve">
<g>
	<path d="M172.245,351.753c0-8.515,0-16.651,0-24.786c0-11.665-0.023-23.329,0.008-34.993c0.025-9.409,5.452-14.795,14.879-14.804
		c14.664-0.014,29.328-0.046,43.992,0.014c8.179,0.034,13.804,5.207,13.832,13.192c0.112,32.327,0.047,64.654,0.026,96.982
		c-0.001,0.957-0.251,1.913-0.42,3.114c-81.317,0-162.397,0-244.2,0c0.957-1.679,1.648-3.1,2.523-4.396
		c16.388-24.279,32.394-48.829,49.316-72.731c16.658-23.53,39.995-35.438,68.891-36.153c5.157-0.128,10.323,0.072,15.485,0.154
		c0.261,0.004,0.517,0.33,0.351,0.217c-3.949,24.711-0.802,49.283-2.129,74.191C147.628,351.753,159.517,351.753,172.245,351.753z"
		/>
	<path d="M283.442,390.28c0-12.531,0-24.946,0-37.966c39.231,0,78.276,0,117.667,0c0-12.504,0-24.409,0-37.081
		c-39.133,0-78.163,0-117.616,0c0-9.674-0.587-18.644,0.196-27.492c0.567-6.403,6.558-10.541,13.241-10.549
		c37.985-0.045,75.991-0.787,113.948,0.249c26.584,0.726,48.543,12.96,64.019,34.647c18.162,25.452,35.208,51.701,53.136,78.192
		C446.339,390.28,365.207,390.28,283.442,390.28z"/>
	<path d="M331.781,100c-45.452,0-89.861,0-135.54,0c22.733-33.642,44.975-66.556,67.75-100.261
		C286.645,33.244,308.924,66.194,331.781,100z"/>
	<path d="M100.523,241.558c19.074-28.21,37.675-55.723,56.664-83.807c7.895,6.378,15.468,12.517,23.064,18.627
		c18.939,15.235,37.894,30.449,56.829,45.689c4.008,3.225,5.727,7.27,3.997,12.351c-1.71,5.024-5.286,7.423-10.587,7.421
		c-42.319-0.016-84.638-0.01-126.958-0.02C102.875,241.819,102.217,241.709,100.523,241.558z"/>
	<path d="M371,158.012c18.817,27.839,37.405,55.338,56.433,83.489c-2.308,0.141-3.874,0.321-5.439,0.321
		c-40.635,0.015-81.269,0.015-121.904,0.009c-7.049-0.001-10.845-2.086-12.567-6.846c-1.858-5.137-0.285-9.544,5.08-13.866
		C318.519,200.24,344.45,179.381,371,158.012z"/>
	<path d="M263.799,187.008c-15.148-0.076-27.241-12.112-27.307-27.181c-0.066-14.9,12.857-27.756,27.714-27.573
		c14.878,0.184,27.247,12.629,27.304,27.47C291.567,174.914,279.206,187.085,263.799,187.008z"/>
</g>
</svg>
