<svg xmlns="http://www.w3.org/2000/svg" width="16" height="16">
    <path fill="#F6BE00" fill-rule="evenodd" d="M16.001 16.001L4 16l-4-4V0h16.001v16.001zM5 15h10V1H1v10l4 4z"/>
    <path fill="#FFF" fill-rule="evenodd" d="M11 3V10L5 3H3V10L5 12V6L11 13H13V3H11Z"/>
</svg>
